787.801 
32.4405 
66.3543 
258.724 
262.972 
122.171 
77.9253 
45.5699 
90.3209 
97.719 
79.0612 
168.836 
15.1046 
69.3155 
60.9681 
251.996 
236.951 
75.6439 
94.3941 
103.284 
102.578 
149.683 
67.064 
85.2155 
65.1306 
159.21 
184.415 
73.3807 
102.293 
90.2032 
194.167 
134.104 
137.898 
169.342 
115.168 
51.2329 
286.041 
280.607 
112.707 
142.66 
88.0153 
118.856 
78.7076 
58.2825 
72.8659 
79.8758 
168.884 
95.0699 
124.349 
88.0613 
172 
117.217 
69.0121 
94.9524 
147.595 
144.276 
28.8856 
51.3055 
86.7462 
110.447 
52.3182 
125.394 
134.278 
112.122 
136.301 
98.217 
73.7362 
126.97 
45.393 
78.6847 
193.07 
84.1365 
191.793 
123.989 
223.522 
62.7487 
40.0104 
201.833 
40.6719 
102.893 
66.7276 
185.723 
324.276 
97.0665 
97.1244 
79.6766 
79.4823 
195.815 
172.359 
131.796 
93.4582 
116.586 
142.741 
163.394 
106.821 
309.845 
161.358 
120.653 
149.511 
78.5523 
97.9144 
47.0509 
67.7711 
54.9673 
77.6358 
119.557 
144.039 
300.352 
101.924 
95.5095 
155.957 
105.456 
43.8968 
97.4543 
43.7428 
123.492 
230.325 
54.1277 
37.9851 
146.972 
36.1083 
116.302 
54.7083 
61.6031 
141.542 
65.718 
97.1669 
23.0678 
203.757 
76.6875 
93.4055 
54.0524 
257.339 
87.4895 
180.129 
231.278 
113.864 
146.081 
54.6291 
56.7293 
129.9 
38.8108 
153.474 
259.821 
107.435 
178.259 
156.917 
118.803 
19.8154 
103.352 
84.8282 
108.425 
100.82 
360.695 
95.9824 
45.3632 
408.34 
95.4465 
62.9194 
80.3263 
175.629 
113.187 
62.4592 
127.657 
99.5999 
211.97 
55.2721 
174.521 
141.38 
116.091 
214.71 
145.312 
110.703 
181.478 
80.4799 
130.867 
53.6999 
177.992 
133.033 
51.8729 
96.4366 
75.8432 
92.4555 
93.9651 
93.9579 
31.4239 
75.5809 
77.86 
112.898 
88.8813 
115.886 
107.646 
164.782 
117.273 
262.098 
250.823 
152.078 
50.9147 
96.4228 
114.819 
49.8915 
149.472 
132.828 
182.022 
54.7292 
177.811 
27.4363 
124.598 
188.342 
22.4184 
204.209 
41.7639 
153.972 
87.7359 
290.104 
312.985 
131.222 
197.392 
73.6146 
72.631 
135.537 
115.256 
98.3927 
63.639 
215.49 
163.318 
187.954 
91.0156 
203.069 
321.987 
204.549 
133.662 
144.448 
117.648 
55.4335 
50.8588 
82.0548 
116.52 
48.1221 
83.9437 
47.5894 
132.032 
116.564 
168.403 
119.058 
93.8159 
315.889 
130.98 
98.8414 
95.5225 
45.1657 
190.72 
53.7202 
104.529 
56.7327 
110.248 
210.596 
64.3641 
70.8686 
122.583 
26.3036 
81.735 
140.596 
107.511 
76.0314 
153.56 
76.3049 
48.0067 
74.7647 
108.29 
58.6123 
115.436 
50.2127 
43.5416 
174.636 
73.7384 
60.7207 
171.878 
188.511 
147.405 
65.335 
141.807 
155.118 
114.797 
100.996 
66.0723 
32.7377 
75.0137 
37.9485 
111.888 
55.6953 
82.9097 
569.071 
247.694 
87.5803 
36.1382 
84.0862 
134.956 
92.425 
99.3486 
25.8718 
81.5453 
140.842 
95.2825 
449.4 
129.333 
50.1108 
122.781 
241.799 
81.0096 
30.457 
156.751 
99.7652 
55.9405 
106.863 
136.682 
35.5342 
161.226 
99.2057 
133.191 
68.8478 
117.172 
146.627 
28.7865 
135.422 
103.838 
98.8761 
115.736 
103.529 
64.8658 
73.1641 
171.381 
107.571 
118.827 
140.754 
36.7164 
239.872 
81.8522 
118.419 
222.456 
140.265 
265.185 
243.073 
93.5721 
62.7728 
97.5821 
150.706 
119.945 
66.4583 
180.552 
58.6911 
147.645 
80.1148 
93.8338 
127.571 
153.626 
135.354 
282.451 
115.628 
157.059 
129.03 
114.028 
219.154 
21.8351 
80.7011 
139.447 
166.939 
41.6378 
33.5935 
624.398 
78.2711 
69.4906 
335.251 
161.576 
43.0014 
109.146 
183.291 
187.351 
483.26 
75.6501 
68.4259 
122.735 
154.641 
206.989 
68.6025 
51.8948 
34.9547 
155.044 
147.078 
74.1288 
116.438 
181.984 
207.712 
553.427 
54.2125 
236.01 
8.16036 
73.545 
129.374 
68.3189 
62.2815 
128.63 
66.0672 
27.5886 
95.7547 
159.237 
45.3882 
96.2076 
96.4995 
209.801 
226.085 
106.857 
167.843 
101.916 
185.907 
100.597 
31.9686 
225.066 
137.748 
89.8187 
33.2018 
51.0431 
142.135 
108.758 
87.4865 
122.734 
179.376 
83.8151 
29.4605 
120.205 
167.284 
68.1336 
54.5968 
75.6363 
23.0649 
286.946 
169.117 
66.5515 
59.5353 
551.279 
69.0556 
77.946 
106.376 
51.884 
104.439 
46.129 
115.319 
148.172 
86.7675 
320.863 
247.854 
103.843 
61.2161 
118.602 
96.5656 
111.266 
131.831 
119.194 
364.28 
132.665 
77.3529 
92.5931 
46.1884 
235.999 
179.801 
55.9194 
68.5532 
178.586 
97.5177 
184.669 
131.424 
280.106 
81.5553 
88.1085 
66.9731 
73.4784 
13.6534 
25.8143 
195.136 
40.7477 
80.0666 
192.218 
353.739 
88.9242 
153.566 
98.1624 
46.0144 
440.302 
75.9329 
110.018 
41.1514 
123.882 
91.6705 
132.047 
197.701 
136.919 
138.321 
120.988 
152.854 
147.504 
79.1999 
128.21 
277.681 
117.043 
50.1942 
135.868 
124.359 
139.529 
20.0349 
128.618 
63.4233 
57.4211 
46.2083 
81.9016 
67.2853 
111.528 
65.6177 
131.351 
297.049 
109.474 
290.173 
54.3845 
52.4098 
71.4536 
165.349 
112.464 
96.4334 
123.71 
57.4528 
131.064 
36.8021 
185.914 
236.933 
77.8408 
96.2159 
182.631 
37.5799 
177.709 
195.412 
85.9308 
88.1708 
204.761 
23.4816 
44.4477 
80.1841 
167.873 
85.4233 
201.605 
142.205 
175.167 
30.5709 
76.7319 
72.3375 
49.4771 
163.746 
151.065 
85.4016 
92.3529 
53.7766 
321.015 
42.4356 
182.473 
68.5817 
207.621 
73.3888 
68.5921 
106.685 
112.462 
52.3911 
28.368 
151.017 
70.9807 
73.0991 
153.57 
134.095 
141.181 
166.006 
66.2472 
53.2744 
103.518 
99.7356 
171.192 
111.163 
49.217 
50.9044 
312.07 
199.045 
81.5409 
75.007 
55.2303 
236.839 
84.9973 
84.6534 
68.7982 
42.422 
72.4578 
39.6009 
246.935 
110.353 
62.0309 
58.556 
135.532 
53.1231 
109.789 
125.689 
201.15 
113.701 
102.978 
41.6888 
92.4565 
147.329 
77.1503 
165.809 
71.8871 
102.469 
74.9753 
100.651 
216.271 
46.9495 
72.0064 
36.6515 
101.457 
70.3611 
111.06 
40.817 
54.6792 
52.9272 
75.3556 
119.407 
107.215 
38.0168 
64.9219 
165.63 
58.6151 
51.5587 
126.434 
64.2595 
272.568 
60.5722 
53.6874 
85.296 
154.077 
163.15 
171.458 
86.1609 
92.1736 
54.3793 
125.681 
202.973 
133.774 
99.5308 
57.7195 
48.362 
76.7806 
38.6868 
118.215 
569.117 
70.5248 
100.731 
104.119 
33.6102 
115.255 
85.8033 
69.998 
63.1393 
86.6861 
189.725 
269.438 
274.788 
140.531 
124.518 
34.8511 
31.3414 
38.4261 
37.0962 
117.212 
166.54 
70.7434 
89.8266 
85.7804 
137.393 
61.443 
39.5762 
69.1306 
281.823 
272.662 
117.232 
100.995 
44.8527 
58.3584 
51.8366 
21.7625 
58.7346 
24.7874 
200.868 
72.0663 
235.192 
139.656 
100.772 
114.487 
55.1917 
29.1194 
127.259 
89.5744 
112.072 
66.2008 
119.204 
58.8389 
170.788 
80.5865 
85.497 
40.9698 
71.335 
192.396 
79.5827 
37.4976 
87.0887 
133.589 
340.922 
54.3735 
184.012 
239.43 
100.096 
161.383 
123.946 
33.9497 
226.236 
147.092 
160.481 
360.346 
250.346 
85.9881 
107.807 
117.2 
43.8144 
68.7035 
118.17 
117.383 
101.092 
36.3529 
67.5251 
168.869 
63.0433 
96.5618 
293.521 
134.892 
386.189 
234.27 
88.6584 
167.042 
138.281 
85.3641 
53.9307 
107.413 
17.312 
145.838 
50.7446 
215.379 
58.6997 
400.218 
80.8816 
80.5326 
43.316 
100.722 
60.5844 
57.2623 
138.419 
196.117 
31.9076 
73.5304 
81.0915 
114.754 
239.759 
100.988 
94.5556 
78.0407 
164.159 
138.498 
99.1276 
109.524 
226.29 
130.824 
189.697 
105.022 
224.68 
94.6167 
353.075 
98.6657 
189.953 
66.6859 
37.9851 
180.195 
195.849 
78.4598 
108.04 
157.442 
92.3721 
44.4191 
110.465 
65.87 
159.824 
56.0625 
61.0693 
159.095 
164.177 
130.002 
48.325 
19.6282 
88.2965 
265.655 
35.1619 
194.582 
76.3485 
448.964 
61.3861 
63.0912 
164.4 
79.3489 
74.6474 
260.913 
87.248 
246.468 
49.5296 
78.5039 
78.4685 
33.6948 
433.424 
107.315 
51.1487 
33.9432 
66.9102 
32.6319 
217.034 
185.38 
66.2644 
205.884 
120.112 
136.62 
75.7846 
40.822 
346.832 
141.23 
22.0001 
49.9801 
50.8516 
148.859 
43.7409 
75.4422 
86.4702 
64.9626 
68.0757 
79.2233 
83.9123 
21.1184 
101.866 
195.388 
213.292 
121.248 
96.3424 
30.4649 
106.565 
42.0605 
182.954 
143.555 
263.487 
130.511 
47.4046 
171.094 
54.4739 
85.7101 
59.3492 
40.8882 
94.1176 
167.7 
58.5505 
82.204 
39.3207 
381.69 
81.4452 
207.742 
38.8554 
80.359 
130.773 
133.164 
106.106 
88.318 
104.653 
82.5931 
82.8898 
201.781 
24.2734 
80.4097 
109.919 
88.084 
96.3467 
35.5391 
126.258 
108.874 
77.0282 
56.6435 
54.4766 
93.6915 
170.878 
56.9154 
270.571 
359.322 
60.676 
118.525 
60.2447 
77.8646 
108.234 
69.0954 
67.4405 
22.9018 
78.1601 
144.264 
84.4049 
43.8212 
304.456 
310.546 
24.1379 
148.492 
51.1399 
132.778 
124.443 
28.0067 
107.8 
112.727 
89.6009 
107.66 
119.037 
74.0659 
59.7223 
158.86 
120.465 
218.569 
51.4644 
57.7946 
215.22 
197.219 
90.6508 
18.4328 
110.642 
99.5055 
170.708 
118.396 
284.784 
197.617 
52.6816 
146.762 
166.505 
127.459 
189.719 
36.5508 
65.9594 
142.389 
84.3751 
145.333 
63.5458 
447.885 
124.507 
50.5153 
73.7167 
133.142 
103.968 
159.929 
64.0099 
332.202 
49.0807 
70.2052 
56.3104 
27.3683 
198.873 
214.019 
55.9595 
74.5163 
27.2297 
102.142 
103.906 
96.1766 
114.974 
130.166 
83.4442 
55.2864 
165.719 
94.0678 
82.8366 
125.077 
190.855 
164.744 
86.0849 
130.788 
339.163 
109.385 
102.865 
23.1972 
38.4594 
62.1401 
100.671 
122.227 
