# vtk DataFile Version 2.0 
Atoms example 
ASCII 
DATASET POLYDATA 
POINTS 4 float
-0.791849 -0.151802 0.307273
0.79434 0.151432 -0.307882
2.26883 -0.1088 -1.15614
2.69531 0.110196 1.15602
POINT_DATA 4
SCALARS MoleculeType float 1
LOOKUP_TABLE default
1
1
1
1
