# vtk DataFile Version 2.0 
Atoms example 
ASCII 
DATASET POLYDATA 
POINTS 4 float
1.15705 -0.284689 0.588091
-1.15693 0.284698 -0.588075
4.30692 0.731302 -0.643958
2.94261 -0.731169 0.643913
POINT_DATA 4
SCALARS MoleculeType float 1
LOOKUP_TABLE default
1
1
1
1
