# vtk DataFile Version 2.0 
Atoms example 
ASCII 
DATASET POLYDATA 
POINTS 4 float
1.10656 0.269209 -0.546212
-1.1065 -0.269208 0.546223
4.9237 0.776836 -0.00753288
3.35221 -0.77683 0.00753816
POINT_DATA 4
SCALARS MoleculeType float 1
LOOKUP_TABLE default
1
1
1
1
