# vtk DataFile Version 2.0 
Atoms example 
ASCII 
DATASET POLYDATA 
POINTS 4 float
-1.30249 -2.10327 0.0148634
-0.57261 -0.940485 -0.74348
0.480976 0.932592 1.15838
0.885337 1.24762 -0.139963
POINT_DATA 4
SCALARS MoleculeType float 1
LOOKUP_TABLE default
1
1
1
1
