# vtk DataFile Version 2.0 
Atoms example 
ASCII 
DATASET POLYDATA 
POINTS 4 float
1.06094 0.161292 -0.325464
-1.06087 -0.16129 0.325477
4.87915 0.893293 -0.122462
3.0927 -0.89327 0.12246
POINT_DATA 4
SCALARS MoleculeType float 1
LOOKUP_TABLE default
1
1
1
1
