# vtk DataFile Version 2.0 
Atoms example 
ASCII 
DATASET POLYDATA 
POINTS 4 float
0.802074 0.250158 -0.508573
-0.802021 -0.250157 0.508583
4.78346 0.557095 0.060937
3.64446 -0.557091 -0.0609316
POINT_DATA 4
SCALARS MoleculeType float 1
LOOKUP_TABLE default
1
1
1
1
