# vtk DataFile Version 2.0 
Atoms example 
ASCII 
DATASET POLYDATA 
POINTS 4 float
-0.458352 -2.24336 0.363164
-0.90386 -0.0316042 -0.922031
0.222694 0.340944 1.48083
1.26127 1.27821 -0.735395
POINT_DATA 4
SCALARS MoleculeType float 1
LOOKUP_TABLE default
1
1
1
1
