# vtk DataFile Version 2.0 
Atoms example 
ASCII 
DATASET POLYDATA 
POINTS 4 float
0.174952 -1.1509 0.0441782
-0.945102 -0.236632 -0.406802
0.392576 0.0656208 0.724333
1.22688 0.905909 -0.29407
POINT_DATA 4
SCALARS MoleculeType float 1
LOOKUP_TABLE default
1
1
1
1
