# vtk DataFile Version 2.0 
Atoms example 
ASCII 
DATASET POLYDATA 
POINTS 4 float
0.204724 0.581265 -1.18917
-0.20469 -0.581265 1.18917
5.41024 0.787482 0.628692
3.70172 -0.787482 -0.62869
POINT_DATA 4
SCALARS MoleculeType float 1
LOOKUP_TABLE default
1
1
1
1
