# vtk DataFile Version 2.0 
Atoms example 
ASCII 
DATASET POLYDATA 
POINTS 4 float
-0.635747 -2.21949 0.286353
-0.844828 -0.232893 -0.884402
0.231234 0.431751 1.51848
1.22558 1.31688 -0.710048
POINT_DATA 4
SCALARS MoleculeType float 1
LOOKUP_TABLE default
1
1
1
1
