# vtk DataFile Version 2.0 
Atoms example 
ASCII 
DATASET POLYDATA 
POINTS 4 float
-2.20794 -2.16556 -1.4248
-2.03414 -4.42618 -0.0869643
0.801415 2.92256 1.9309
0.0216173 1.84662 0.347189
POINT_DATA 4
SCALARS MoleculeType float 1
LOOKUP_TABLE default
1
1
1
1
