# vtk DataFile Version 2.0 
Atoms example 
ASCII 
DATASET POLYDATA 
POINTS 4 float
-2.14384 -2.5009 0.0658239
-0.125753 -1.13419 -0.924974
0.456053 1.22972 1.76988
0.819727 1.38201 -0.541508
POINT_DATA 4
SCALARS MoleculeType float 1
LOOKUP_TABLE default
1
1
1
1
