# vtk DataFile Version 2.0 
Atoms example 
ASCII 
DATASET POLYDATA 
POINTS 4 float
-0.272298 0.563581 -1.15147
0.316429 -0.573591 1.11023
0.787093 -0.784495 -0.415734
2.47911 0.789344 0.429458
POINT_DATA 4
SCALARS MoleculeType float 1
LOOKUP_TABLE default
1
1
1
1
