# vtk DataFile Version 2.0 
Atoms example 
ASCII 
DATASET POLYDATA 
POINTS 4 float
-0.742371 -0.00991646 0.0172576
0.746849 0.00911773 -0.0186362
2.16858 -0.133458 -0.703971
2.5661 0.135171 0.704129
POINT_DATA 4
SCALARS MoleculeType float 1
LOOKUP_TABLE default
1
1
1
1
