# vtk DataFile Version 2.0 
Atoms example 
ASCII 
DATASET POLYDATA 
POINTS 4 float
-2.04481 -3.07456 -1.20575
-2.67067 -4.22677 -0.46264
0.817974 3.25479 1.98728
-0.103603 2.03217 0.542748
POINT_DATA 4
SCALARS MoleculeType float 1
LOOKUP_TABLE default
1
1
1
1
