# vtk DataFile Version 2.0 
Atoms example 
ASCII 
DATASET POLYDATA 
POINTS 4 float
0.752796 -0.0698029 0.146308
-0.752703 0.0698078 -0.146293
4.23871 0.457299 -0.222024
3.35301 -0.457223 0.221999
POINT_DATA 4
SCALARS MoleculeType float 1
LOOKUP_TABLE default
1
1
1
1
