# vtk DataFile Version 2.0 
Atoms example 
ASCII 
DATASET POLYDATA 
POINTS 4 float
-2.65664 -2.10242 -0.672764
-0.441397 -2.77447 -0.460487
0.607714 1.92403 1.6257
0.477915 1.59384 0.0435584
POINT_DATA 4
SCALARS MoleculeType float 1
LOOKUP_TABLE default
1
1
1
1
