# vtk DataFile Version 2.0 
Atoms example 
ASCII 
DATASET POLYDATA 
POINTS 4 float
-2.65502 -2.19777 -0.874936
-0.837515 -3.27045 -0.388839
0.705551 2.356 2.18511
0.289528 1.59336 -0.305913
POINT_DATA 4
SCALARS MoleculeType float 1
LOOKUP_TABLE default
1
1
1
1
