# vtk DataFile Version 2.0 
Atoms example 
ASCII 
DATASET POLYDATA 
POINTS 4 float
0.725909 0.0882416 -0.284978
-0.590198 -0.153921 0.174973
0.270821 -0.654263 0.342763
1.58747 0.665954 -0.305732
POINT_DATA 4
SCALARS MoleculeType float 1
LOOKUP_TABLE default
1
1
1
1
