# vtk DataFile Version 2.0 
Atoms example 
ASCII 
DATASET POLYDATA 
POINTS 4 float
-2.06182 -4.31518 -1.08374
-3.60044 -4.40534 -0.897912
0.961858 4.02578 1.92092
-0.46481 2.29674 1.11297
POINT_DATA 4
SCALARS MoleculeType float 1
LOOKUP_TABLE default
1
1
1
1
