# vtk DataFile Version 2.0 
Atoms example 
ASCII 
DATASET POLYDATA 
POINTS 4 float
-1.14696 -2.05766 0.0260579
-0.649237 -0.867826 -0.728565
0.442382 0.841494 1.19589
0.942035 1.2524 -0.219473
POINT_DATA 4
SCALARS MoleculeType float 1
LOOKUP_TABLE default
1
1
1
1
