# vtk DataFile Version 2.0 
Atoms example 
ASCII 
DATASET POLYDATA 
POINTS 4 float
0.107505 -0.579001 1.18602
-0.107318 0.579043 -1.18601
3.4601 0.396508 -1.01048
2.83784 -0.395966 1.01032
POINT_DATA 4
SCALARS MoleculeType float 1
LOOKUP_TABLE default
1
1
1
1
