# vtk DataFile Version 2.0 
Atoms example 
ASCII 
DATASET POLYDATA 
POINTS 4 float
-0.980236 0.0727993 -0.152408
0.986519 -0.0739344 0.150266
2.0386 -0.193495 -0.612611
2.54283 0.195439 0.613046
POINT_DATA 4
SCALARS MoleculeType float 1
LOOKUP_TABLE default
1
1
1
1
