# vtk DataFile Version 2.0 
Atoms example 
ASCII 
DATASET POLYDATA 
POINTS 4 float
-0.197713 0.302109 -0.619427
0.197736 -0.30211 0.619432
5.14808 0.317204 0.473428
4.41989 -0.317204 -0.473426
POINT_DATA 4
SCALARS MoleculeType float 1
LOOKUP_TABLE default
1
1
1
1
