# vtk DataFile Version 2.0 
Atoms example 
ASCII 
DATASET POLYDATA 
POINTS 4 float
0.828899 -0.288725 0.594892
-0.828762 0.288741 -0.594877
4.17247 0.740374 -0.760854
2.81073 -0.740149 0.760785
POINT_DATA 4
SCALARS MoleculeType float 1
LOOKUP_TABLE default
1
1
1
1
