# vtk DataFile Version 2.0 
Atoms example 
ASCII 
DATASET POLYDATA 
POINTS 4 float
0.781331 0.44368 -0.935176
-0.694325 -0.474376 0.855678
0.672598 -0.547097 0.0925719
1.81134 0.55793 -0.064317
POINT_DATA 4
SCALARS MoleculeType float 1
LOOKUP_TABLE default
1
1
1
1
