# vtk DataFile Version 2.0 
Atoms example 
ASCII 
DATASET POLYDATA 
POINTS 4 float
-0.334139 0.57549 -1.17359
0.375306 -0.584797 1.13565
0.929495 -0.685904 -0.395735
2.41448 0.690533 0.408253
POINT_DATA 4
SCALARS MoleculeType float 1
LOOKUP_TABLE default
1
1
1
1
