# vtk DataFile Version 2.0 
Atoms example 
ASCII 
DATASET POLYDATA 
POINTS 4 float
-0.375534 0.553974 -1.12921
0.413782 -0.5626 1.0945
1.08573 -0.574444 -0.368371
2.33599 0.578863 0.379715
POINT_DATA 4
SCALARS MoleculeType float 1
LOOKUP_TABLE default
1
1
1
1
