# vtk DataFile Version 2.0 
Atoms example 
ASCII 
DATASET POLYDATA 
POINTS 4 float
0.377823 0.272594 -0.556413
-0.377778 -0.272594 0.556422
4.88232 0.50637 0.250485
3.81162 -0.506368 -0.250481
POINT_DATA 4
SCALARS MoleculeType float 1
LOOKUP_TABLE default
1
1
1
1
