# vtk DataFile Version 2.0 
Atoms example 
ASCII 
DATASET POLYDATA 
POINTS 4 float
-2.42451 -2.1627 -0.578861
-0.555186 -2.53679 -0.515233
0.575493 1.79424 1.48495
0.537301 1.59418 0.121324
POINT_DATA 4
SCALARS MoleculeType float 1
LOOKUP_TABLE default
1
1
1
1
