# vtk DataFile Version 2.0 
Atoms example 
ASCII 
DATASET POLYDATA 
POINTS 4 float
0.85071 0.0248548 -0.188343
-0.720933 -0.107621 0.0739707
0.381368 -0.505452 0.327669
1.37639 0.518418 -0.288656
POINT_DATA 4
SCALARS MoleculeType float 1
LOOKUP_TABLE default
1
1
1
1
