# vtk DataFile Version 2.0 
Atoms example 
ASCII 
DATASET POLYDATA 
POINTS 4 float
0.869251 0.0883533 -0.176986
-0.869173 -0.0883503 0.176999
4.67375 0.748736 -0.144971
3.18406 -0.748699 0.144962
POINT_DATA 4
SCALARS MoleculeType float 1
LOOKUP_TABLE default
1
1
1
1
