# vtk DataFile Version 2.0 
Atoms example 
ASCII 
DATASET POLYDATA 
POINTS 4 float
-2.13236 -4.62839 -0.993904
-3.68771 -4.32866 -1.03995
0.779083 3.90649 1.81714
-0.318255 2.58862 1.30073
POINT_DATA 4
SCALARS MoleculeType float 1
LOOKUP_TABLE default
1
1
1
1
