# vtk DataFile Version 2.0 
Atoms example 
ASCII 
DATASET POLYDATA 
POINTS 4 float
-0.497098 -0.411722 0.840733
0.497098 0.411722 -0.840733
5.58065 -0.383537 0.913319
6.19135 0.383537 -0.913319
POINT_DATA 4
SCALARS MoleculeType float 1
LOOKUP_TABLE default
1
1
1
1
