# vtk DataFile Version 2.0 
Atoms example 
ASCII 
DATASET POLYDATA 
POINTS 4 float
0.908602 -0.297813 0.613855
-0.908467 0.297828 -0.61384
4.22207 0.771943 -0.77609
2.79919 -0.771735 0.776025
POINT_DATA 4
SCALARS MoleculeType float 1
LOOKUP_TABLE default
1
1
1
1
