# vtk DataFile Version 2.0 
Atoms example 
ASCII 
DATASET POLYDATA 
POINTS 4 float
0.109104 -1.20699 0.0573825
-0.918772 -0.239779 -0.433149
0.421451 0.12345 0.716784
1.189 0.891298 -0.26548
POINT_DATA 4
SCALARS MoleculeType float 1
LOOKUP_TABLE default
1
1
1
1
