# vtk DataFile Version 2.0 
Atoms example 
ASCII 
DATASET POLYDATA 
POINTS 4 float
0.0513992 0.504669 -1.03303
-0.0513696 -0.504669 1.03304
5.28459 0.577555 0.539073
4.01737 -0.577554 -0.539071
POINT_DATA 4
SCALARS MoleculeType float 1
LOOKUP_TABLE default
1
1
1
1
