# vtk DataFile Version 2.0 
Atoms example 
ASCII 
DATASET POLYDATA 
POINTS 4 float
-2.62666 -5.61413 -0.828042
-3.9035 -4.40731 -1.44076
1.02268 4.63018 1.67845
-0.724841 2.64161 1.81731
POINT_DATA 4
SCALARS MoleculeType float 1
LOOKUP_TABLE default
1
1
1
1
