# vtk DataFile Version 2.0 
Atoms example 
ASCII 
DATASET POLYDATA 
POINTS 4 float
-0.30555 0.573658 -1.17073
0.348194 -0.583314 1.13115
0.855056 -0.738211 -0.407418
2.45003 0.742948 0.420535
POINT_DATA 4
SCALARS MoleculeType float 1
LOOKUP_TABLE default
1
1
1
1
