# vtk DataFile Version 2.0 
Atoms example 
ASCII 
DATASET POLYDATA 
POINTS 4 float
1.1156 -0.247933 0.512649
-1.11549 0.247941 -0.512633
4.27092 0.648581 -0.536342
3.05467 -0.648463 0.536301
POINT_DATA 4
SCALARS MoleculeType float 1
LOOKUP_TABLE default
1
1
1
1
