# vtk DataFile Version 2.0 
Atoms example 
ASCII 
DATASET POLYDATA 
POINTS 4 float
-2.18311 -2.24399 -1.43182
-2.13787 -4.46602 -0.106053
0.862059 3.05636 2.04527
-0.0571362 1.79912 0.274807
POINT_DATA 4
SCALARS MoleculeType float 1
LOOKUP_TABLE default
1
1
1
1
