# vtk DataFile Version 2.0 
Atoms example 
ASCII 
DATASET POLYDATA 
POINTS 4 float
0.0532619 -1.27246 0.0753738
-0.902433 -0.233515 -0.464261
0.44224 0.173183 0.719576
1.1592 0.884765 -0.247242
POINT_DATA 4
SCALARS MoleculeType float 1
LOOKUP_TABLE default
1
1
1
1
