# vtk DataFile Version 2.0 
Atoms example 
ASCII 
DATASET POLYDATA 
POINTS 4 float
-2.09074 -2.48415 0.0771556
-0.139406 -1.09181 -0.923253
0.463652 1.2035 1.68807
0.821182 1.36508 -0.480696
POINT_DATA 4
SCALARS MoleculeType float 1
LOOKUP_TABLE default
1
1
1
1
