# vtk DataFile Version 2.0 
Atoms example 
ASCII 
DATASET POLYDATA 
POINTS 4 float
-2.4279 -5.59343 -0.805651
-4.02335 -4.30975 -1.43704
1.00641 4.56067 1.68086
-0.690466 2.62482 1.77292
POINT_DATA 4
SCALARS MoleculeType float 1
LOOKUP_TABLE default
1
1
1
1
