1245.01 
455.034 
467.621 
594.343 
630.89 
568.799 
457.093 
424.132 
455.233 
454.075 
505.215 
579.363 
415.779 
471.25 
447.35 
636.227 
548.214 
468.375 
479.309 
476.6 
433.081 
527.291 
472.198 
487.024 
450.652 
587.585 
586.955 
499.581 
478.739 
460.004 
682.035 
511.044 
545.629 
494.577 
571.67 
416.398 
703.385 
690.336 
468.587 
534.428 
459.481 
502.585 
466.877 
460.021 
479.532 
474.717 
565.419 
478.542 
466.845 
520.834 
625.598 
501.316 
498.923 
529.211 
498.541 
517.331 
406.373 
443.804 
503.827 
490.755 
446.873 
531.07 
525.729 
471.127 
517.265 
460.728 
505.319 
565.003 
439.098 
469.423 
629.701 
530.267 
587.186 
513.044 
549.43 
439.989 
417.347 
529.352 
410.662 
490.568 
468.945 
565.695 
820.663 
490.795 
488.956 
455.211 
532.422 
597.517 
534.665 
554.892 
513.344 
529.582 
555.468 
535.377 
460.581 
797.615 
550.402 
496.555 
607.462 
473.673 
466.002 
470.31 
483.219 
441.387 
524.648 
579.578 
578.907 
571.116 
501.093 
501.582 
627.366 
524.966 
438.557 
502.193 
476.404 
528.316 
579.724 
440.561 
416.971 
502.035 
446.686 
534.862 
450.668 
466.328 
624.729 
447.3 
521.395 
426.682 
586.696 
455.028 
545.913 
448.509 
665.513 
485.18 
719.92 
574.88 
468.602 
545.258 
443.673 
421.443 
510.452 
448.102 
558.096 
614.586 
459.955 
577.449 
573.724 
521.365 
403.306 
509.779 
510.103 
529.982 
452.57 
827.535 
556.498 
465.106 
826.681 
477.622 
449.874 
438.454 
549.935 
467.772 
465.136 
529.611 
515.976 
580.266 
523.243 
553.332 
505.742 
503.85 
688.628 
533.027 
465.492 
545.114 
538.811 
576.88 
465.44 
512.784 
516.713 
460.379 
474.157 
481.534 
515.907 
458.357 
523.09 
430.531 
512.646 
508.468 
480.719 
530.887 
509.099 
475.79 
580.028 
470.87 
694.497 
677.393 
635.975 
475.442 
482.274 
518.713 
436.396 
537.516 
576.626 
524.519 
472.134 
565.196 
441.221 
574.059 
592.901 
412.42 
531.861 
439.04 
554.039 
504.867 
675.502 
726.74 
563.846 
615.129 
479.076 
435.004 
497.27 
458.757 
492.403 
418.673 
577.066 
573.949 
667.436 
473.714 
599.01 
690.411 
630.689 
521.33 
456.228 
475.934 
429.818 
501.044 
532.014 
510.048 
469.377 
457.351 
387.761 
609.043 
515.062 
559.492 
460.807 
434.687 
917.241 
515.416 
449.886 
494.734 
451.808 
686.72 
457.951 
488.609 
446.356 
561.947 
522.649 
472.295 
454.602 
521.749 
418.38 
466.818 
536.472 
469.358 
454.723 
563.753 
520.93 
507.829 
447.031 
534.411 
424.678 
458.124 
460.43 
480.233 
590.659 
456.309 
451.312 
659.422 
555.524 
488.816 
497.839 
482.396 
568.666 
529.001 
446.657 
460.452 
464.141 
517.217 
433.601 
444.381 
445.143 
490.681 
777.596 
604.774 
468.426 
464.288 
500.278 
609.124 
496.184 
489.511 
438.288 
491.961 
513.127 
503.285 
772.921 
519.813 
455.2 
555.194 
619.907 
465.354 
400.58 
491.305 
476.31 
464.964 
518.316 
484.986 
448.626 
551.265 
483.372 
555.002 
469.409 
525.319 
534.839 
449.019 
498.011 
561.708 
537.176 
553.333 
517.185 
459.617 
469.134 
556.942 
531.55 
558.941 
496.627 
374.744 
647.907 
469.897 
502.925 
669.938 
478.027 
702.908 
628.814 
496.044 
496.8 
510.135 
487.663 
493.597 
415.11 
531.39 
446.166 
512.222 
474.995 
461.496 
505.319 
476.368 
558.556 
743.955 
522.486 
522.556 
513.053 
495.315 
562.256 
441.1 
462.712 
532.887 
631.067 
482.105 
428.416 
1114.46 
430.415 
452.477 
779.607 
575.609 
477.335 
489.42 
571.484 
645.406 
776.964 
472.704 
476.811 
493.411 
451.501 
580.432 
444.089 
409.624 
435.937 
523.901 
537.339 
465.734 
503.791 
623.192 
616.716 
961.007 
462.16 
669.399 
422.022 
441.3 
494.954 
517.199 
447.376 
457.945 
475.93 
421.181 
441.559 
606.151 
442.498 
495.61 
463.353 
631.417 
642.263 
494.71 
524.634 
498.113 
624.379 
533.228 
415.222 
588.083 
595.378 
483.714 
432.621 
484.987 
504.313 
478.107 
487.299 
541.539 
519.596 
452.163 
416.377 
467.307 
518.757 
446.338 
464.811 
462.768 
420.425 
685.984 
576.64 
436.608 
471.347 
728.016 
475.906 
411.701 
514.435 
480.531 
483.024 
431.769 
517.565 
511.342 
486.622 
655.937 
687.592 
490.718 
442.431 
491.821 
469.419 
489.025 
507.691 
513.45 
890.513 
532.992 
485.786 
545.247 
454.06 
623.34 
602.573 
415.76 
465.436 
563.563 
473.463 
596.426 
536.219 
673.731 
500.754 
510.792 
439.007 
467.61 
401.34 
412.942 
573.744 
423.462 
429.455 
565.621 
766.219 
515.212 
522.636 
497.941 
456.238 
863.976 
451.002 
485.983 
428.596 
487.489 
486.773 
546.603 
568.491 
564.248 
568.133 
522.32 
572.526 
525.957 
487.508 
486.268 
633.787 
478.225 
438.759 
476.394 
533.239 
547.76 
408.582 
527.573 
440.261 
498.018 
472.093 
511.714 
504.201 
554.518 
494.71 
540.975 
769.014 
507.457 
639.187 
488.418 
471.202 
516.431 
523.711 
481.336 
491.695 
449.738 
449.528 
500.423 
377.465 
579.366 
670.752 
487.93 
470.175 
524.264 
455.304 
654.591 
629.862 
456.386 
495.336 
549.384 
415.873 
460.225 
553.89 
541.592 
476.796 
572.323 
548.669 
567.848 
424.472 
476.885 
477.971 
435.96 
520.465 
553.033 
463.226 
465.734 
422.574 
883.42 
436.875 
596.194 
439.926 
526.257 
455.689 
453.885 
502.724 
509.275 
448.824 
431.069 
568.292 
497.379 
428.43 
530.681 
462.16 
556.003 
509.604 
457.066 
460.77 
519.424 
500.709 
575.899 
552.285 
464.376 
453.262 
740.922 
588.82 
459.942 
462.139 
472.019 
497.584 
487.066 
454.989 
480.232 
446.482 
465.796 
431.498 
719.757 
548.41 
465.359 
440.739 
553.366 
438.258 
520.149 
528.04 
568.586 
486.691 
466.122 
408.915 
518.546 
552.76 
443.841 
617.25 
481.56 
457.933 
470.207 
459.384 
602.576 
411.322 
510.014 
427.83 
519.667 
447.236 
497.548 
436.419 
469.62 
443.16 
495.329 
482.071 
542.824 
430.203 
455.419 
576.624 
434.577 
433.503 
462.73 
507.306 
599.589 
502.866 
429.981 
455.586 
529.714 
490.053 
523.744 
472.231 
468.252 
480.694 
531.132 
548 
568.02 
550.22 
476.846 
452.314 
451.606 
433.58 
504.408 
851.147 
446.484 
496.777 
530.876 
404.637 
509.722 
510.35 
483.244 
468.139 
457.083 
592.366 
712.044 
627.791 
471.725 
467.346 
460.891 
428.926 
454.759 
421.727 
576.552 
561.516 
418.904 
452.34 
505.607 
516.906 
471.553 
457.102 
477.936 
604.381 
650.442 
492.464 
516.739 
503.15 
440.517 
478.82 
435.221 
449.938 
428.411 
578.398 
465.001 
561.816 
521.359 
545.553 
473.212 
412.066 
408.887 
500.374 
446.919 
547.12 
458.443 
547.792 
498.263 
573.457 
508.744 
453.362 
416.638 
453.026 
544.186 
434.676 
383.25 
534.875 
503.076 
666.257 
439.848 
620.382 
624.554 
495.939 
622.142 
538.584 
420.253 
585.455 
482.381 
584.105 
748.61 
702.212 
433.492 
500.203 
478.354 
448.273 
489.568 
493.995 
461.037 
495.746 
416.847 
469.403 
580.198 
430.785 
525.859 
754.366 
499.229 
655.788 
605.076 
450.562 
643.613 
550.619 
484.578 
441.156 
475.082 
421.034 
510.55 
445.507 
640.155 
462.302 
851.085 
468.224 
458.209 
457.122 
508.361 
443.448 
483.992 
544.498 
563.572 
456.508 
511.779 
478.011 
521.213 
655.707 
511.275 
471.667 
453.217 
539.22 
531.757 
504.68 
484.667 
607.867 
553.586 
664.409 
455.366 
557.061 
487.132 
890.373 
527.579 
577.526 
470.718 
424.425 
552.228 
599.396 
484.872 
525.94 
525.624 
485.907 
436.324 
535.985 
460.142 
574.318 
492.456 
499.594 
568.115 
548.46 
525.378 
451.433 
423.065 
545.189 
613.367 
472.033 
612.408 
459.225 
1061.32 
436.987 
466.186 
594.768 
517.857 
466.486 
675.435 
532.513 
623.749 
433.144 
463.146 
468.887 
414.309 
945.232 
544.923 
429.262 
400.486 
474.672 
418.691 
630.003 
594.999 
453.62 
686.71 
562.712 
577.065 
474.764 
448.883 
809.74 
559.987 
407.643 
409.275 
425.456 
584.424 
467.204 
483.768 
469.003 
481.273 
452.414 
446.909 
486.369 
429.762 
469.828 
633.421 
581.545 
529.05 
513.245 
393.22 
549.999 
470.723 
622.721 
520.905 
605.48 
512.807 
450.818 
564.046 
460.884 
415.163 
442.42 
428.402 
469.108 
638.702 
476.936 
431.297 
430.224 
930.711 
487.068 
602.613 
412.757 
534.745 
546.291 
552.716 
513.888 
543.578 
552.147 
440.901 
437.174 
557.494 
426.051 
528.108 
466.182 
468.146 
495.252 
430.088 
543.864 
498.586 
509.571 
447.648 
486.561 
454.027 
626.314 
416.636 
613.614 
764.883 
472.117 
491.685 
448.474 
461.714 
506.132 
495.481 
472.045 
439.745 
505.59 
591.08 
501.417 
486.836 
732.688 
671.731 
402.015 
555.01 
440.174 
579.628 
523.803 
403.812 
476.348 
554.735 
477.297 
454.596 
549.087 
548.111 
473.183 
564.213 
508.11 
635.005 
470.07 
513.683 
689.473 
564.148 
483.095 
414.939 
468.589 
518.994 
688.608 
561.465 
743.157 
533.551 
421.875 
621.148 
576.104 
494.179 
547.69 
454.847 
447.833 
550.329 
502.992 
566.138 
471.224 
826.883 
575.973 
453.881 
549.559 
591.681 
492.152 
520.001 
530.148 
678.006 
473.628 
472.893 
455.252 
405.694 
581.034 
590.97 
377.065 
508.158 
408.338 
515.271 
508.79 
519.784 
490.555 
548.668 
546.068 
469.495 
586.339 
434.737 
482.596 
500.926 
596.017 
532.003 
501.908 
518.533 
647.648 
499.65 
478.473 
448.826 
472.561 
456.633 
486.978 
496.154 
